ticker,name,price b,price a,ebt,ebt rank,price growth
AAPL,Apple Inc,176.57,210.52,16168000000,1,19.22750184
GOOGL,Alphabet Inc,1022.64,1296.2,10543000000,2,26.75037159
JPM,Jpmorgan Chase & Co,107.92,115.41,10188000000,3,6.940326168
MSFT,Microsoft Corp,94.26,125.01,8641000000,4,32.62253342
BAC,Bank Of America Corp,29.92,30.35,8394000000,5,1.437165775
XOM,Exxon Mobil Corp,76.54,77.29,7107000000,6,0.979879801
WFC,Wells Fargo & Company,52.41,48.65,6510000000,7,-7.174203396
C,Citigroup Inc,68.25,70.7,6061000000,8,3.58974359
T,At&T Inc,31.94,30.59,6044000000,9,-4.226675016
VZ,Verizon Communications Inc,48.82,56.58,5933000000,10,15.89512495
NEE,Nextera Energy Inc,162.17,189.79,5677000000,11,17.03151014
FB,Facebook Inc,174.16,193.26,5610000000,12,10.96692696
JNJ,Johnson & Johnson,126.01,141.95,5481000000,13,12.6497897
FNMA,Federal National Mortgage Association Fannie Mae,1.41,2.43,5392000000,14,72.34042553
CVX,Chevron Corp,126.01,116.38,5052000000,15,-7.642250615
INTC,Intel Corp,52.73,52.43,5011000000,16,-0.56893609
PFE,Pfizer Inc,35.04,40.64,4117000000,17,15.98173516
CMCSA,Comcast Corp,34.26,42.93,3936000000,18,25.30647986
DIS,Walt Disney Co,101.79,134.99,3750000000,19,32.61617055
FMCC,Federal Home Loan Mortgage Corp,1.37,2.4,3674000000,20,75.18248175
,,,,,,349.9061017
