ticker,name,price b,prince a,netmargin,nm rank,price growth
HMG,Hmg Courtland Properties Inc,13.02,13.4,286.916,1,2.91858679
PLXP,PLx Pharma Inc,4.35,5.34,61.119,2,22.75862069
BIEI,Premier Biomedical Inc,0.5,0.023,54.48,3,-95.4
GSVC,GSV Capital Corp,6.78,7.13,27.94,4,5.162241888
MYDX,MyDx Inc,0.004,0.002,11.513,5,-50
GEC,Great Elm Capital Group Inc,3.85,4.2,9.734,6,9.090909091
SVVC,Firsthand Technology Value Fund Inc,11.428,10.96,9.321,7,-4.09520476
SKVI,Skinvisible Inc,0.705,0.27,6.175,8,-61.70212766
MMAC,MMA Capital Holdings Inc,28.6,30.9,5.888,9,8.041958042
CANB,Canbiola Inc,0.016,0.046,5.842,10,187.5
MDCO,Medicines Co,30.2,31.58,3.751,11,4.569536424
EQC,Equity Commonwealth,31.42,31.8,3.168,12,1.209420751
GSAT,Globalstar Inc,0.65,0.545,3.059,13,-16.15384615
DX,Dynex Capital Inc,19.59,18,3.043,14,-8.116385911
RARE,Ultragenyx Pharmaceutical Inc,57.8,62.57,2.833,15,8.252595156
CKX,Ckx Lands Inc,10.13,10,2.415,16,-1.283316881
APPS,Digital Turbine Inc,1.88,3.68,2.222,17,95.74468085
ADES,Advanced Emissions Solutions Inc,11.06,11.28,1.965,18,1.98915009
AMBC,Ambac Financial Group Inc,18.3,18.89,1.756,19,3.224043716
VXRT,Vaxart Inc,5.13,0.702,1.54,20,-86.31578947
,,,,,,27.39507265
