ticker,name,price b,price a,roic,roic rank,price growth
PURE,Pure Bioscience Inc,0.7,0.477,1755.556,1,-31.85714286
RARX,Ra Pharmaceuticals Inc,5.99,23.22,388.881,2,287.6460768
CASI,CASI Pharmaceuticals Inc,7.98,3.18,282.13,3,-60.15037594
MARPS,Marine Petroleum Trust,3.495,2.52,272.435,4,-27.89699571
SLNO,Soleno Therapeutics Inc,1.795,2,252.22,5,11.42061281
NDRA,ENDRA Life Sciences Inc,2.45,1.37,158.262,6,-44.08163265
BHVN,Biohaven Pharmaceutical Holding Co Ltd,29.77,62.28,156.637,7,109.2038965
OCX,OncoCyte Corp,2.4,4.28,136.21,8,78.33333333
DARE,Dare Bioscience Inc,1.07,0.94,130.925,9,-12.14953271
NLNK,Newlink Genetics Corp,5.16,1.67,115.279,10,-67.63565891
ATMS,Artemis Therapeutics Inc,1,0.3,112.205,11,-70
EYES,Second Sight Medical Products Inc,1.98,0.962,107.982,12,-51.41414141
CLRB,Cellectar Biosciences Inc,11.1,2.41,76.4,13,-78.28828829
ZYNE,Zynerba Pharmaceuticals Inc,9,12.23,57.042,14,35.88888889
ABEO,Abeona Therapeutics Inc,18.85,7.68,46.516,15,-59.25729443
IDN,Intellicheck Inc,1.9,3.7,44.868,16,94.73684211
WATT,Energous Corp,18.01,5.17,42.525,17,-71.29372571
BCDA,BioCardia Inc,1.45,1,40.931,18,-31.03448276
CYTR,Cytrx Corp,1.93,0.525,39.78,19,-72.79792746
VTGN,VistaGen Therapeutics Inc,1.35,0.71,38.7,20,-47.40740741
,,,,,,-108.0349558
