ticker,name,price b,price a,rev gr,rev gr rank,da,da rank,agg score,price growth
PCYO,Pure Cycle Corp,9,10.19,1387.367272,78,0.014839754,7,41.2759,13.22222222
BSTC,Biospecifics Technologies Corp,41.6,68.28,1666.967417,66,0.052448629,37,51,64.13461538
CYRX,Cryoport Inc,7.73,15.21,11107.27896,20,0.104911612,82,52.069,96.76584735
CGA,China Green Agriculture Inc,15,6.284,1761.381295,61,0.112137647,93,77.5517,-58.10666667
ACAD,Acadia Pharmaceuticals Inc,17.8,23.66,5963.027295,33,0.133520397,134,85.2414,32.92134831
NTIP,Network 1 Technologies Inc,2.75,2.35,28107.24638,13,0.147344533,157,87.4828,-14.54545455
ESTE,Earthstone Energy Inc,9.75,6.34,1988.610827,53,0.129523108,122,88.6897,-34.97435897
SGEN,Seattle Genetics Inc,48.86,68.6,1884.333098,58,0.131844761,129,94.7241,40.40114613
MGTI,Mgt Capital Investments Inc,1.23,0.059,1738.461538,64,0.134893505,135,100.7241,-95.20325203
MOJO,MOJO Organics Inc,0.2,0.265,381306.5217,2,0.173763356,198,103.3793,32.5
ABMD,Abiomed Inc,394.46,262.64,896.3785914,118,0.123161342,111,114.3793,-33.41783704
TRNX,Taronis Technologies Inc,12.82,0.562,149740.5371,5,0.194353619,236,124.4828,-95.61622465
BLFS,Biolife Solutions Inc,7.96,16.76,1101.030746,92,0.14818216,162,128.2069,110.5527638
SYEV,Seychelle Environmental Technologies Inc,0.26,0.07,989.2339591,107,0.144040324,153,130.7931,-73.07692308
EPM,Evolution Petroleum Corp,9.15,7.15,1276.331204,82,0.168929748,192,138.8966,-21.8579235
EXEL,Exelixis Inc,20.62,19.34,659.8983682,151,0.135691011,139,144.7931,-6.20756547
CSGP,Costar Group Inc,370.16,474.37,423.7218736,225,0.095032794,72,145.8621,28.15269073
MKTX,Marketaxess Holdings Inc,199.48,265.46,400.0828284,238,0.088429302,61,146.4483,33.07599759
TPL,Texas Pacific Land Trust,650.81,790.27,1111.054508,90,0.180660559,213,153.6207,21.42868118
OLED,Universal Display Corp,90.9,156.6,1503.78737,72,0.191778806,230,153.7241,72.27722772
,,,,,,,,,112.4263345
