ticker,name,price b,price a,rev gr,rev gr rank,ebt,ebt rank,da,da rank,agg,price growth
GOOGL,Alphabet Inc,1022.64,1296.2,500.5735008,119,10543000000,2,0.222823592,154,186.119,26.75037159
REGN,Regeneron Pharmaceuticals Inc,292.41,322.4,2580.74597,11,585398000,153,0.299279097,247,270.619,10.25614719
CXO,Concho Resources Inc,157.66,108.77,787.4436562,67,1089000000,84,0.322856547,284,289.5952,-31.00976785
CTSH,Cognizant Technology Solutions Corp,77.86,59.25,508.2978545,116,697000000,133,0.269657694,205,302.2619,-23.90187516
MU,Micron Technology Inc,54.21,43.99,440.9124356,136,3452000000,21,0.355839372,337,332.0714,-18.85261022
UTHR,UNITED THERAPEUTICS Corp,104.31,99.3,527.2664271,113,309000000,250,0.209125223,140,332.0714,-4.802991084
SWKS,Skyworks Solutions Inc,96.2,87.6,352.8328078,185,292300000,265,0.142230933,69,344.0952,-8.93970894
ISRG,Intuitive Surgical Inc,471.03,528.06,350.3331668,187,290200000,267,0.1431328,70,347.4286,12.10750908
ALXN,Alexion Pharmaceuticals Inc,121.42,135.68,1939.613505,18,351600000,227,0.341101358,305,361.6905,11.74435843
IPGP,Ipg Photonics Corp,233.36,158.63,580.5809819,95,141854000,424,0.141167739,67,382.8333,-32.02348303
EXEL,Exelixis Inc,20.62,19.34,659.8983682,87,118371000,476,0.135691011,62,407.4048,-6.20756547
MNST,Monster Beverage Corp,50.06,63.11,301.041107,229,281720000,270,0.182384161,115,408.3571,26.06871754
LULU,lululemon athletica inc,105.05,171.63,731.1715865,71,107223000,503,0.186643171,119,451.7143,63.37934317
TROW,Price T Rowe Group Inc,111,109.76,137.5245931,488,598100000,150,0.12555768,50,466.7143,-1.117117117
VRTX,Vertex Pharmaceuticals Inc,156.05,172.6,1437.610078,30,197604000,345,0.38506527,385,499.1667,10.60557514
WELL,Welltower Inc,56.18,74.53,707.4706298,78,450935000,188,0.44324104,503,510.0476,32.66286935
NVDA,Nvidia Corp,242.7,160.19,178.0504045,402,1311000000,70,0.326614311,292,517.2381,-33.99670375
PLD,Prologis Inc,65.22,74.2,293.0374081,235,383930000,210,0.366795427,359,536.5952,13.76878258
CERN,Cerner Corp,55.09,65.08,236.0131509,302,200079000,342,0.247425302,181,549.0476,18.13396261
MKTX,Marketaxess Holdings Inc,199.48,265.46,400.0828284,153,61013000,676,0.088429302,24,556.2143,33.07599759
,,,,,,,,,,,97.70181163
